\babel@toc {english}{}
\contentsline {chapter}{\chapternumberline {1}A little background}{4}{chapter.1}%
\contentsline {chapter}{\chapternumberline {2}Styles included in memoir}{6}{chapter.2}%
\contentsline {section}{default}{6}{section*.5}%
\contentsline {section}{section}{7}{section*.6}%
\contentsline {section}{article}{7}{section*.7}%
\contentsline {section}{reparticle}{8}{section*.8}%
\contentsline {section}{hangnum}{8}{section*.9}%
\contentsline {section}{companion}{9}{section*.10}%
\contentsline {section}{demo}{9}{section*.11}%
\contentsline {section}{bianchi}{9}{section*.12}%
\contentsline {section}{bringhurst}{9}{section*.13}%
\contentsline {section}{brotherton}{9}{section*.14}%
\contentsline {section}{chappell}{10}{section*.15}%
\contentsline {section}{culver}{10}{section*.16}%
\contentsline {section}{dash}{10}{section*.17}%
\contentsline {section}{demo2}{11}{section*.18}%
\contentsline {section}{demo3}{12}{section*.19}%
\contentsline {section}{ell}{13}{section*.20}%
\contentsline {section}{ger}{14}{section*.21}%
\contentsline {section}{lyhne}{15}{section*.22}%
\contentsline {section}{madsen}{16}{section*.23}%
\contentsline {section}{pedersen}{17}{section*.24}%
\contentsline {section}{southall}{18}{section*.25}%
\contentsline {section}{thatcher}{18}{section*.26}%
\contentsline {section}{veelo}{18}{section*.27}%
\contentsline {section}{verville}{18}{section*.28}%
\contentsline {section}{crosshead}{19}{section*.29}%
\contentsline {section}{dowding}{19}{section*.30}%
\contentsline {section}{komalike}{19}{section*.31}%
\contentsline {section}{ntglike}{19}{section*.32}%
\contentsline {section}{tandh}{20}{section*.33}%
\contentsline {section}{wilsondob}{20}{section*.34}%
\contentsline {chapter}{\chapternumberline {3}Found or contributed styles}{21}{chapter.3}%
\contentsline {section}{AlexanderGrebenkov}{21}{section*.35}%
\contentsline {section}{daleif1}{22}{section*.36}%
\contentsline {section}{daleif3}{22}{section*.37}%
\contentsline {section}{GreyNum}{23}{section*.38}%
\contentsline {section}{EQ}{25}{section*.39}%
\contentsline {section}{jenor}{27}{section*.40}%
\contentsline {section}{texblogtikz}{27}{section*.41}%
\contentsline {section}{verly}{29}{section*.42}%
\contentsline {section}{hansen}{30}{section*.43}%
\contentsline {chapter}{\chapternumberline {4}Vincent Zoonekynd}{32}{chapter.4}%
\contentsline {section}{VZ14}{32}{section*.44}%
\contentsline {section}{VZ15b}{32}{section*.45}%
\contentsline {section}{VZ21}{33}{section*.46}%
\contentsline {section}{VZ23}{34}{section*.47}%
\contentsline {section}{VZ34}{34}{section*.48}%
\contentsline {section}{BlueBox}{34}{section*.49}%
\contentsline {section}{VZ43}{35}{section*.50}%
\contentsline {chapter}{Bibliography}{37}{chapter*.51}%
