\relax 
\providecommand\hyper@newdestlabel[2]{}
\providecommand*{\memsetcounter}[2]{}
\@nameuse{bbl@beforestart}
\providecommand\HyperFirstAtBeginDocument{\AtBeginDocument}
\HyperFirstAtBeginDocument{\ifx\hyper@anchor\@undefined
\global\let\oldcontentsline\contentsline
\gdef\contentsline#1#2#3#4{\oldcontentsline{#1}{#2}{#3}}
\global\let\oldnewlabel\newlabel
\gdef\newlabel#1#2{\newlabelxx{#1}#2}
\gdef\newlabelxx#1#2#3#4#5#6{\oldnewlabel{#1}{{#2}{#3}}}
\AtEndDocument{\ifx\hyper@anchor\@undefined
\let\contentsline\oldcontentsline
\let\newlabel\oldnewlabel
\fi}
\fi}
\global\let\hyper@last\relax 
\gdef\HyperFirstAtBeginDocument#1{#1}
\providecommand\HyField@AuxAddToFields[1]{}
\providecommand\HyField@AuxAddToCoFields[2]{}
\babel@aux{english}{}
\newlabel{sec:todo}{{\M@TitleReference {}{TODO}}{2}{TODO}{section*.2}{}}
\citation{memman}
\@writefile{lof}{\addvspace {10pt}}
\@writefile{lot}{\addvspace {10pt}}
\@writefile{toc}{\contentsline {chapter}{\chapternumberline {1}A little background}{4}{chapter.1}\protected@file@percent }
\newlabel{cha:little-background}{{\M@TitleReference {1}{A little background}}{4}{A little background}{chapter.1}{}}
\@writefile{lof}{\addvspace {10pt}}
\@writefile{lot}{\addvspace {10pt}}
\@writefile{toc}{\contentsline {chapter}{\chapternumberline {2}Styles included in memoir}{6}{chapter.2}\protected@file@percent }
\newlabel{cha:defa-styl-incl}{{\M@TitleReference {2}{Styles included in memoir}}{6}{Styles included in memoir}{chapter.2}{}}
\@writefile{toc}{\contentsline {section}{default}{6}{section*.5}\protected@file@percent }
\@writefile{toc}{\contentsline {section}{section}{7}{section*.6}\protected@file@percent }
\@writefile{toc}{\contentsline {section}{article}{7}{section*.7}\protected@file@percent }
\@writefile{toc}{\contentsline {section}{reparticle}{8}{section*.8}\protected@file@percent }
\@writefile{toc}{\contentsline {section}{hangnum}{8}{section*.9}\protected@file@percent }
\@writefile{toc}{\contentsline {section}{companion}{9}{section*.10}\protected@file@percent }
\@writefile{toc}{\contentsline {section}{demo}{9}{section*.11}\protected@file@percent }
\@writefile{toc}{\contentsline {section}{bianchi}{9}{section*.12}\protected@file@percent }
\@writefile{toc}{\contentsline {section}{bringhurst}{9}{section*.13}\protected@file@percent }
\@writefile{toc}{\contentsline {section}{brotherton}{9}{section*.14}\protected@file@percent }
\@writefile{toc}{\contentsline {section}{chappell}{10}{section*.15}\protected@file@percent }
\@writefile{toc}{\contentsline {section}{culver}{10}{section*.16}\protected@file@percent }
\@writefile{toc}{\contentsline {section}{dash}{10}{section*.17}\protected@file@percent }
\@writefile{toc}{\contentsline {section}{demo2}{11}{section*.18}\protected@file@percent }
\@writefile{toc}{\contentsline {section}{demo3}{12}{section*.19}\protected@file@percent }
\@writefile{toc}{\contentsline {section}{ell}{13}{section*.20}\protected@file@percent }
\@writefile{toc}{\contentsline {section}{ger}{14}{section*.21}\protected@file@percent }
\@writefile{toc}{\contentsline {section}{lyhne}{15}{section*.22}\protected@file@percent }
\@writefile{toc}{\contentsline {section}{madsen}{16}{section*.23}\protected@file@percent }
\@writefile{toc}{\contentsline {section}{pedersen}{17}{section*.24}\protected@file@percent }
\@writefile{toc}{\contentsline {section}{southall}{18}{section*.25}\protected@file@percent }
\@writefile{toc}{\contentsline {section}{thatcher}{18}{section*.26}\protected@file@percent }
\@writefile{toc}{\contentsline {section}{veelo}{18}{section*.27}\protected@file@percent }
\@writefile{toc}{\contentsline {section}{verville}{18}{section*.28}\protected@file@percent }
\@writefile{toc}{\contentsline {section}{crosshead}{19}{section*.29}\protected@file@percent }
\@writefile{toc}{\contentsline {section}{dowding}{19}{section*.30}\protected@file@percent }
\@writefile{toc}{\contentsline {section}{komalike}{19}{section*.31}\protected@file@percent }
\@writefile{toc}{\contentsline {section}{ntglike}{19}{section*.32}\protected@file@percent }
\@writefile{toc}{\contentsline {section}{tandh}{20}{section*.33}\protected@file@percent }
\@writefile{toc}{\contentsline {section}{wilsondob}{20}{section*.34}\protected@file@percent }
\@writefile{lof}{\addvspace {10pt}}
\@writefile{lot}{\addvspace {10pt}}
\@writefile{toc}{\contentsline {chapter}{\chapternumberline {3}Found or contributed styles}{21}{chapter.3}\protected@file@percent }
\@writefile{toc}{\contentsline {section}{AlexanderGrebenkov}{21}{section*.35}\protected@file@percent }
\@writefile{toc}{\contentsline {section}{daleif1}{22}{section*.36}\protected@file@percent }
\@writefile{toc}{\contentsline {section}{daleif3}{22}{section*.37}\protected@file@percent }
\@writefile{toc}{\contentsline {section}{GreyNum}{23}{section*.38}\protected@file@percent }
\@writefile{toc}{\contentsline {section}{EQ}{25}{section*.39}\protected@file@percent }
\@writefile{toc}{\contentsline {section}{jenor}{27}{section*.40}\protected@file@percent }
\@writefile{toc}{\contentsline {section}{texblogtikz}{27}{section*.41}\protected@file@percent }
\@writefile{toc}{\contentsline {section}{verly}{29}{section*.42}\protected@file@percent }
\@writefile{toc}{\contentsline {section}{hansen}{30}{section*.43}\protected@file@percent }
\@writefile{lof}{\addvspace {10pt}}
\@writefile{lot}{\addvspace {10pt}}
\@writefile{toc}{\contentsline {chapter}{\chapternumberline {4}Vincent Zoonekynd}{32}{chapter.4}\protected@file@percent }
\newlabel{sec:vincent-zoonekynd}{{\M@TitleReference {4}{Vincent Zoonekynd}}{32}{Vincent Zoonekynd}{chapter.4}{}}
\@writefile{toc}{\contentsline {section}{VZ14}{32}{section*.44}\protected@file@percent }
\@writefile{toc}{\contentsline {section}{VZ15b}{32}{section*.45}\protected@file@percent }
\@writefile{toc}{\contentsline {section}{VZ21}{33}{section*.46}\protected@file@percent }
\@writefile{toc}{\contentsline {section}{VZ23}{34}{section*.47}\protected@file@percent }
\@writefile{toc}{\contentsline {section}{VZ34}{34}{section*.48}\protected@file@percent }
\newlabel{BlueBox}{{\M@TitleReference {4}{Vincent Zoonekynd}}{34}{Vincent Zoonekynd}{section*.48}{}}
\@writefile{toc}{\contentsline {section}{BlueBox}{34}{section*.49}\protected@file@percent }
\@writefile{toc}{\contentsline {section}{VZ43}{35}{section*.50}\protected@file@percent }
\bibcite{memman}{1}
\bibcite{VZ}{2}
\@writefile{toc}{\contentsline {chapter}{Bibliography}{37}{chapter*.51}\protected@file@percent }
\memsetcounter{lastsheet}{37}
\memsetcounter{lastpage}{37}
