\relax 
\providecommand\hyper@newdestlabel[2]{}
\@writefile{lof}{\addvspace {10pt}}
\@writefile{lot}{\addvspace {10pt}}
\@writefile{toc}{\contentsline {chapter}{\chapternumberline {5}Voting}{22}{chapter.5}\protected@file@percent }
\@writefile{toc}{\contentsline {section}{\numberline {5.1}Procedure for Taking a Vote}{22}{section.5.1}\protected@file@percent }
\@writefile{toc}{\contentsline {section}{\numberline {5.2}The Majority Rules}{23}{section.5.2}\protected@file@percent }
\@writefile{toc}{\contentsline {subsection}{Majority Vote Defined}{24}{section*.3}\protected@file@percent }
\@writefile{toc}{\contentsline {subsection}{Modifications in Majority Vote}{24}{section*.4}\protected@file@percent }
\@writefile{toc}{\contentsline {subsection}{A Majority of those Present}{25}{section*.5}\protected@file@percent }
\@writefile{toc}{\contentsline {subsection}{A Majority of the Entire Membership}{25}{section*.6}\protected@file@percent }
\@writefile{toc}{\contentsline {subsection}{A Majority of the Fixed Membership}{26}{section*.7}\protected@file@percent }
\@writefile{toc}{\contentsline {section}{\numberline {5.3}A Two-Thirds Vote}{27}{section.5.3}\protected@file@percent }
\@writefile{toc}{\contentsline {section}{\numberline {5.4}A Three-Fourths Vote}{28}{section.5.4}\protected@file@percent }
\@writefile{toc}{\contentsline {section}{\numberline {5.5}The Tie Vote}{28}{section.5.5}\protected@file@percent }
\@writefile{toc}{\contentsline {section}{\numberline {5.6}Doubting the Result of the Vote}{28}{section.5.6}\protected@file@percent }
\@writefile{toc}{\contentsline {subsection}{Calling for a Division}{29}{section*.8}\protected@file@percent }
\@writefile{toc}{\contentsline {subsection}{Doubting the Result of a Ballot Vote or Roll Call Vote}{29}{section*.9}\protected@file@percent }
\@setckpt{chap/ch5}{
\setcounter{page}{33}
\setcounter{equation}{0}
\setcounter{enumi}{9}
\setcounter{enumii}{0}
\setcounter{enumiii}{0}
\setcounter{enumiv}{0}
\setcounter{footnote}{0}
\setcounter{mpfootnote}{0}
\setcounter{@memmarkcntra}{-1}
\setcounter{storedpagenumber}{1}
\setcounter{book}{0}
\setcounter{part}{0}
\setcounter{chapter}{5}
\setcounter{section}{6}
\setcounter{subsection}{0}
\setcounter{subsubsection}{0}
\setcounter{paragraph}{0}
\setcounter{subparagraph}{0}
\setcounter{@ppsavesec}{0}
\setcounter{@ppsaveapp}{0}
\setcounter{vslineno}{0}
\setcounter{poemline}{0}
\setcounter{modulo@vs}{0}
\setcounter{memfvsline}{0}
\setcounter{verse}{0}
\setcounter{chrsinstr}{0}
\setcounter{poem}{0}
\setcounter{newflo@tctr}{4}
\setcounter{@contsubnum}{0}
\setcounter{maxsecnumdepth}{1}
\setcounter{sidefootnote}{0}
\setcounter{pagenote}{0}
\setcounter{pagenoteshadow}{0}
\setcounter{memfbvline}{0}
\setcounter{bvlinectr}{0}
\setcounter{cp@cntr}{0}
\setcounter{ism@mctr}{0}
\setcounter{xsm@mctr}{0}
\setcounter{csm@mctr}{0}
\setcounter{ksm@mctr}{0}
\setcounter{xksm@mctr}{0}
\setcounter{cksm@mctr}{0}
\setcounter{msm@mctr}{0}
\setcounter{xmsm@mctr}{0}
\setcounter{cmsm@mctr}{0}
\setcounter{bsm@mctr}{0}
\setcounter{workm@mctr}{0}
\setcounter{sheetsequence}{37}
\setcounter{lastsheet}{114}
\setcounter{lastpage}{110}
\setcounter{figure}{0}
\setcounter{lofdepth}{1}
\setcounter{table}{0}
\setcounter{lotdepth}{1}
\setcounter{AM@survey}{0}
\setcounter{NAT@ctr}{0}
\setcounter{Item}{27}
\setcounter{Hfootnote}{0}
\setcounter{memhycontfloat}{0}
\setcounter{Hpagenote}{0}
\setcounter{bookmark@seq@number}{31}
\setcounter{section@level}{2}
}
