\contentsline {chapter}{Contents}{i}{section*.1}%
\contentsline {chapter}{List of Figures}{ii}{section*.2}%
\contentsline {chapter}{List of Tables}{ii}{section*.3}%
\contentsline {part}{\partnumberline {I}College}{1}{part.1}%
\contentsline {chapter}{\chapternumberline {1}The Year 2020}{2}{chapter.1}%
\contentsline {section}{\numberline {1.1}January}{2}{section.1.1}%
\contentsline {subsection}{[6792] Wed, 01/01}{2}{section*.5}%
\contentsline {chapter}{Bibliography}{4}{appendix*.6}%
