\relax 
\providecommand\hyper@newdestlabel[2]{}
\@writefile{lof}{\addvspace {10pt}}
\@writefile{lot}{\addvspace {10pt}}
\@writefile{toc}{\contentsline {chapter}{\chapternumberline {1}Introduction}{1}{chapter.1}\protected@file@percent }
\newlabel{ch-intro}{{\M@TitleReference {1}{Introduction}}{1}{Introduction}{chapter.1}{}}
\newlabel{ch-intro@cref}{{[chapter][1][]1}{[1][1][]1}}
\@writefile{toc}{\contentsline {section}{\numberline {1.1}Background of the Study}{1}{section.1.1}\protected@file@percent }
\newlabel{sec-background}{{\M@TitleReference {1.1}{Background of the Study}}{1}{Background of the Study}{section.1.1}{}}
\newlabel{sec-background@cref}{{[section][1][1]1.1}{[1][1][]1}}
\@writefile{toc}{\contentsline {section}{\numberline {1.2}Objectives}{2}{section.1.2}\protected@file@percent }
\newlabel{sec-objectives}{{\M@TitleReference {1.2}{Objectives}}{2}{Objectives}{section.1.2}{}}
\newlabel{sec-objectives@cref}{{[section][2][1]1.2}{[1][2][]2}}
\@writefile{toc}{\contentsline {section}{\numberline {1.3}Statement of the Problem}{2}{section.1.3}\protected@file@percent }
\newlabel{sec-problem}{{\M@TitleReference {1.3}{Statement of the Problem}}{2}{Statement of the Problem}{section.1.3}{}}
\newlabel{sec-problem@cref}{{[section][3][1]1.3}{[1][2][]2}}
\@writefile{toc}{\contentsline {section}{\numberline {1.4}Hypothesis}{2}{section.1.4}\protected@file@percent }
\newlabel{sec-hypothesis}{{\M@TitleReference {1.4}{Hypothesis}}{2}{Hypothesis}{section.1.4}{}}
\newlabel{sec-hypothesis@cref}{{[section][4][1]1.4}{[1][2][]2}}
\@writefile{toc}{\contentsline {section}{\numberline {1.5}Significance of the Study}{3}{section.1.5}\protected@file@percent }
\newlabel{sec-significance}{{\M@TitleReference {1.5}{Significance of the Study}}{3}{Significance of the Study}{section.1.5}{}}
\newlabel{sec-significance@cref}{{[section][5][1]1.5}{[1][2][]3}}
\@writefile{toc}{\contentsline {section}{\numberline {1.6}Scope and Delimitation}{3}{section.1.6}\protected@file@percent }
\newlabel{sec-scope}{{\M@TitleReference {1.6}{Scope and Delimitation}}{3}{Scope and Delimitation}{section.1.6}{}}
\newlabel{sec-scope@cref}{{[section][6][1]1.6}{[1][3][]3}}
\@setckpt{chapters/intro}{
\setcounter{page}{4}
\setcounter{equation}{0}
\setcounter{enumi}{0}
\setcounter{enumii}{0}
\setcounter{enumiii}{0}
\setcounter{enumiv}{0}
\setcounter{footnote}{0}
\setcounter{mpfootnote}{0}
\setcounter{@memmarkcntra}{-1}
\setcounter{storedpagenumber}{1}
\setcounter{book}{0}
\setcounter{part}{0}
\setcounter{chapter}{1}
\setcounter{section}{6}
\setcounter{subsection}{0}
\setcounter{subsubsection}{0}
\setcounter{paragraph}{0}
\setcounter{subparagraph}{0}
\setcounter{@ppsavesec}{0}
\setcounter{@ppsaveapp}{0}
\setcounter{vslineno}{0}
\setcounter{poemline}{0}
\setcounter{modulo@vs}{0}
\setcounter{memfvsline}{0}
\setcounter{verse}{0}
\setcounter{chrsinstr}{0}
\setcounter{poem}{0}
\setcounter{newflo@tctr}{4}
\setcounter{@contsubnum}{0}
\setcounter{maxsecnumdepth}{1}
\setcounter{sidefootnote}{0}
\setcounter{pagenote}{0}
\setcounter{pagenoteshadow}{0}
\setcounter{memfbvline}{0}
\setcounter{bvlinectr}{0}
\setcounter{cp@cntr}{0}
\setcounter{ism@mctr}{0}
\setcounter{xsm@mctr}{0}
\setcounter{csm@mctr}{0}
\setcounter{ksm@mctr}{0}
\setcounter{xksm@mctr}{0}
\setcounter{cksm@mctr}{0}
\setcounter{msm@mctr}{0}
\setcounter{xmsm@mctr}{0}
\setcounter{cmsm@mctr}{0}
\setcounter{bsm@mctr}{0}
\setcounter{workm@mctr}{0}
\setcounter{sheetsequence}{9}
\setcounter{lastsheet}{13}
\setcounter{lastpage}{8}
\setcounter{figure}{0}
\setcounter{lofdepth}{1}
\setcounter{table}{0}
\setcounter{lotdepth}{1}
\setcounter{caption@flags}{0}
\setcounter{continuedfloat}{0}
\setcounter{subfigure}{0}
\setcounter{subtable}{0}
\setcounter{Item}{0}
\setcounter{Hfootnote}{0}
\setcounter{memhycontfloat}{0}
\setcounter{Hpagenote}{0}
\setcounter{bookmark@seq@number}{12}
\setcounter{section@level}{1}
}
