\relax 
\@writefile{toc}{\contentsline {section}{Poems}{iii}\protected@file@percent }
\@writefile{toc}{\contentsline {section}{Preface}{iv}\protected@file@percent }
\@writefile{top}{\contentsline {subsection}{\relax Daydream}{1}\protected@file@percent }
\@writefile{top}{\contentsline {subsection}{\relax Warmth}{1}\protected@file@percent }
\@writefile{top}{\contentsline {subsection}{\relax Test}{1}\protected@file@percent }
